module_a14_tp1/systemc_examples/shifter/wave/waveform.vcd
$date
     Sep 09, 2014       11:21:19
$end

$version
              SystemC 2.2.0 --- Oct 15 2013 10:44:08
$end

$timescale
     1 ps
$end

$scope module SystemC $end
$var wire    1  aaa  clock       $end
$var wire    1  aab  bascule_d_dout       $end
$var wire    1  aac  bascule_d_din       $end
$upscope $end
$enddefinitions  $end

$comment
All initial values are dumped below at time 0 sec = 0 timescale units.
$end

$dumpvars
1aaa
0aab
0aac
$end

#500
0aaa

#1000
1aaa
1aac

#1500
0aaa

#2000
1aaa
0aac

#2500
0aaa

#3000
1aaa
1aac

#3500
0aaa

#4000
1aaa
0aac

#4500
0aaa

#5000
1aaa
1aac

#5500
0aaa

#6000
1aaa
0aac

#6500
0aaa

#7000
1aaa
1aac

#7500
0aaa

#8000
1aaa
0aac

#8500
0aaa

#9000
1aaa
1aac

#9500
0aaa

#10000
1aaa
1aab
0aac

#10500
0aaa

#11000
1aaa
0aab
1aac

#11500
0aaa

#12000
1aaa
1aab
0aac

#12500
0aaa

#13000
1aaa
0aab
1aac

#13500
0aaa

#14000
1aaa
1aab
0aac

#14500
0aaa

#15000
1aaa
0aab
1aac

#15500
0aaa

#16000
1aaa
1aab
0aac

#16500
0aaa

#17000
1aaa
0aab
1aac

#17500
0aaa

#18000
1aaa
1aab
0aac

#18500
0aaa

#19000
1aaa
0aab
1aac

#19500
0aaa

#20000
1aaa
1aab
0aac

#20500
0aaa

#21000
1aaa
0aab
1aac

#21500
0aaa

#22000
1aaa
1aab
0aac

#22500
0aaa

#23000
1aaa
0aab
1aac

#23500
0aaa

#24000
1aaa
1aab
0aac

#24500
0aaa

#25000
1aaa
0aab
1aac

#25500
0aaa

#26000
1aaa
1aab
0aac

#26500
0aaa

#27000
1aaa
0aab
1aac

#27500
0aaa

#28000
1aaa
1aab
0aac

#28500
0aaa

#29000
1aaa
0aab
1aac

#29500
0aaa

#30000
1aaa
1aab
0aac

#30500
0aaa

#31000
1aaa
0aab
1aac

#31500
0aaa

#32000
1aaa
1aab
0aac

#32500
0aaa

#33000
1aaa
0aab
1aac

#33500
0aaa

#34000
1aaa
1aab
0aac

#34500
0aaa

#35000
1aaa
0aab
1aac

#35500
0aaa

#36000
1aaa
1aab
0aac

#36500
0aaa

#37000
1aaa
0aab
1aac

#37500
0aaa

#38000
1aaa
1aab
0aac

#38500
0aaa

#39000
1aaa
0aab
1aac

#39500
0aaa

#40000
1aaa
1aab
0aac

#40500
0aaa

#41000
1aaa
0aab
1aac

#41500
0aaa

#42000
1aaa
1aab
0aac

#42500
0aaa

#43000
1aaa
0aab
1aac

#43500
0aaa

#44000
1aaa
1aab
0aac

#44500
0aaa

#45000
1aaa
0aab
1aac

#45500
0aaa

#46000
1aaa
1aab
0aac

#46500
0aaa

#47000
1aaa
0aab
1aac

#47500
0aaa

#48000
1aaa
1aab
0aac

#48500
0aaa

#49000
1aaa
0aab
1aac

#49500
0aaa

#50000
1aaa
1aab
0aac

#50500
0aaa

#51000
1aaa
0aab
1aac

#51500
0aaa

#52000
1aaa
1aab
0aac

#52500
0aaa

#53000
1aaa
0aab
1aac

#53500
0aaa

#54000
1aaa
1aab
0aac

#54500
0aaa

#55000
1aaa
0aab
1aac

#55500
0aaa

#56000
1aaa
1aab
0aac

#56500
0aaa

#57000
1aaa
0aab
1aac

#57500
0aaa

#58000
1aaa
1aab
0aac

#58500
0aaa

#59000
1aaa
0aab
1aac

#59500
0aaa

#60000
1aaa
1aab
0aac

#60500
0aaa

#61000
1aaa
0aab
1aac

#61500
0aaa

#62000
1aaa
1aab
0aac

#62500
0aaa

#63000
1aaa
0aab
1aac

#63500
0aaa

#64000
1aaa
1aab
0aac

#64500
0aaa

#65000
1aaa
0aab
1aac

#65500
0aaa

#66000
1aaa
1aab
0aac

#66500
0aaa

#67000
1aaa
0aab
1aac

#67500
0aaa

#68000
1aaa
1aab
0aac

#68500
0aaa

#69000
1aaa
0aab
1aac

#69500
0aaa

#70000
1aaa
1aab
0aac

#70500
0aaa

#71000
1aaa
0aab
1aac

#71500
0aaa

#72000
1aaa
1aab
0aac

#72500
0aaa

#73000
1aaa
0aab
1aac

#73500
0aaa

#74000
1aaa
1aab
0aac

#74500
0aaa

#75000
1aaa
0aab
1aac

#75500
0aaa

#76000
1aaa
1aab
0aac

#76500
0aaa

#77000
1aaa
0aab
1aac

#77500
0aaa

#78000
1aaa
1aab
0aac

#78500
0aaa

#79000
1aaa
0aab
1aac

#79500
0aaa

#80000
1aaa
1aab
0aac

#80500
0aaa

#81000
1aaa
0aab
1aac

#81500
0aaa

#82000
1aaa
1aab
0aac

#82500
0aaa

#83000
1aaa
0aab
1aac

#83500
0aaa

#84000
1aaa
1aab
0aac

#84500
0aaa

#85000
1aaa
0aab
1aac

#85500
0aaa

#86000
1aaa
1aab
0aac

#86500
0aaa

#87000
1aaa
0aab
1aac

#87500
0aaa

#88000
1aaa
1aab
0aac

#88500
0aaa

#89000
1aaa
0aab
1aac

#89500
0aaa

#90000
1aaa
1aab
0aac

#90500
0aaa

#91000
1aaa
0aab
1aac

#91500
0aaa

#92000
1aaa
1aab
0aac

#92500
0aaa

#93000
1aaa
0aab
1aac

#93500
0aaa

#94000
1aaa
1aab
0aac

#94500
0aaa

#95000
1aaa
0aab
1aac

#95500
0aaa

#96000
1aaa
1aab
0aac

#96500
0aaa

#97000
1aaa
0aab
1aac

#97500
0aaa

#98000
1aaa
1aab
0aac

#98500
0aaa

#99000
1aaa
0aab
1aac

