module_a14_tp1/systemc_examples/ram/wave/waveform.vcd
$date
     Sep 09, 2014       11:16:48
$end

$version
              SystemC 2.2.0 --- Oct 15 2013 10:44:08
$end

$timescale
     1 ps
$end

$scope module SystemC $end
$var wire    1  aaa  clock       $end
$var wire   16  aab  data [15:0]  $end
$var wire    1  aac  wen       $end
$var wire    1  aad  oen       $end
$var wire    8  aae  addr [7:0]  $end
$upscope $end
$enddefinitions  $end

$comment
All initial values are dumped below at time 0 sec = 0 timescale units.
$end

$dumpvars
1aaa
bZZZZZZZZZZZZZZZZ aab
1aac
1aad
b1 aae
$end

#500
0aaa

#1000
1aaa
b1010 aab
0aac

#1500
0aaa

#2000
1aaa
bZZZZZZZZZZZZZZZZ aab
1aac
b0 aae

#2500
0aaa

#3000
1aaa
bXXXXXXXXXXXXXXXX aab
0aad

#3500
0aaa

#4000
1aaa
bZZZZZZZZZZZZZZZZ aab
1aad
b10 aae

#4500
0aaa

#5000
1aaa
b10100 aab
0aac

#5500
0aaa

#6000
1aaa
bZZZZZZZZZZZZZZZZ aab
1aac
b1 aae

#6500
0aaa

#7000
1aaa
b1010 aab
0aad

#7500
0aaa

#8000
1aaa
bZZZZZZZZZZZZZZZZ aab
1aad
b11 aae

#8500
0aaa

#9000
1aaa
b11110 aab
0aac

#9500
0aaa

#10000
1aaa
bZZZZZZZZZZZZZZZZ aab
1aac
b10 aae

#10500
0aaa

#11000
1aaa
b10100 aab
0aad

#11500
0aaa

#12000
1aaa
bZZZZZZZZZZZZZZZZ aab
1aad
b100 aae

#12500
0aaa

#13000
1aaa
b101000 aab
0aac

#13500
0aaa

#14000
1aaa
bZZZZZZZZZZZZZZZZ aab
1aac
b11 aae

#14500
0aaa

#15000
1aaa
b11110 aab
0aad

#15500
0aaa

#16000
1aaa
bZZZZZZZZZZZZZZZZ aab
1aad
b101 aae

#16500
0aaa

#17000
1aaa
b110010 aab
0aac

#17500
0aaa

#18000
1aaa
bZZZZZZZZZZZZZZZZ aab
1aac
b100 aae

#18500
0aaa

#19000
1aaa
b101000 aab
0aad

#19500
0aaa

#20000
1aaa
bZZZZZZZZZZZZZZZZ aab
1aad
b110 aae

#20500
0aaa

#21000
1aaa
b111100 aab
0aac

#21500
0aaa

#22000
1aaa
bZZZZZZZZZZZZZZZZ aab
1aac
b101 aae

#22500
0aaa

#23000
1aaa
b110010 aab
0aad

#23500
0aaa

#24000
1aaa
bZZZZZZZZZZZZZZZZ aab
1aad
b111 aae

#24500
0aaa

#25000
1aaa
b1000110 aab
0aac

#25500
0aaa

#26000
1aaa
bZZZZZZZZZZZZZZZZ aab
1aac
b110 aae

#26500
0aaa

#27000
1aaa
b111100 aab
0aad

#27500
0aaa

#28000
1aaa
bZZZZZZZZZZZZZZZZ aab
1aad
b1000 aae

#28500
0aaa

#29000
1aaa
b1010000 aab
0aac

#29500
0aaa

#30000
1aaa
bZZZZZZZZZZZZZZZZ aab
1aac
b111 aae

#30500
0aaa

#31000
1aaa
b1000110 aab
0aad

#31500
0aaa

#32000
1aaa
bZZZZZZZZZZZZZZZZ aab
1aad
b1001 aae

#32500
0aaa

#33000
1aaa
b1011010 aab
0aac

#33500
0aaa

#34000
1aaa
bZZZZZZZZZZZZZZZZ aab
1aac
b1000 aae

#34500
0aaa

#35000
1aaa
b1010000 aab
0aad

#35500
0aaa

#36000
1aaa
bZZZZZZZZZZZZZZZZ aab
1aad
b1010 aae

#36500
0aaa

#37000
1aaa
b1100100 aab
0aac

#37500
0aaa

#38000
1aaa
bZZZZZZZZZZZZZZZZ aab
1aac
b1001 aae

#38500
0aaa

#39000
1aaa
b1011010 aab
0aad

#39500
0aaa

#40000
1aaa
bZZZZZZZZZZZZZZZZ aab
1aad
b1011 aae

#40500
0aaa

#41000
1aaa
b1101110 aab
0aac

#41500
0aaa

#42000
1aaa
bZZZZZZZZZZZZZZZZ aab
1aac
b1010 aae

#42500
0aaa

#43000
1aaa
b1100100 aab
0aad

#43500
0aaa

#44000
1aaa
bZZZZZZZZZZZZZZZZ aab
1aad
b1100 aae

#44500
0aaa

#45000
1aaa
b1111000 aab
0aac

#45500
0aaa

#46000
1aaa
bZZZZZZZZZZZZZZZZ aab
1aac
b1011 aae

#46500
0aaa

#47000
1aaa
b1101110 aab
0aad

#47500
0aaa

#48000
1aaa
bZZZZZZZZZZZZZZZZ aab
1aad
b1101 aae

#48500
0aaa

#49000
1aaa
b10000010 aab
0aac

#49500
0aaa

#50000
1aaa
bZZZZZZZZZZZZZZZZ aab
1aac
b1100 aae

#50500
0aaa

#51000
1aaa
b1111000 aab
0aad

#51500
0aaa

#52000
1aaa
bZZZZZZZZZZZZZZZZ aab
1aad
b1110 aae

#52500
0aaa

#53000
1aaa
b10001100 aab
0aac

#53500
0aaa

#54000
1aaa
bZZZZZZZZZZZZZZZZ aab
1aac
b1101 aae

#54500
0aaa

#55000
1aaa
b10000010 aab
0aad

#55500
0aaa

#56000
1aaa
bZZZZZZZZZZZZZZZZ aab
1aad
b1111 aae

#56500
0aaa

#57000
1aaa
b10010110 aab
0aac

#57500
0aaa

#58000
1aaa
bZZZZZZZZZZZZZZZZ aab
1aac
b1110 aae

#58500
0aaa

#59000
1aaa
b10001100 aab
0aad

#59500
0aaa

#60000
1aaa
bZZZZZZZZZZZZZZZZ aab
1aad
b10000 aae

#60500
0aaa

#61000
1aaa
b10100000 aab
0aac

#61500
0aaa

#62000
1aaa
bZZZZZZZZZZZZZZZZ aab
1aac
b1111 aae

#62500
0aaa

#63000
1aaa
b10010110 aab
0aad

#63500
0aaa

#64000
1aaa
bZZZZZZZZZZZZZZZZ aab
1aad
b10001 aae

#64500
0aaa

#65000
1aaa
b10101010 aab
0aac

#65500
0aaa

#66000
1aaa
bZZZZZZZZZZZZZZZZ aab
1aac
b10000 aae

#66500
0aaa

#67000
1aaa
b10100000 aab
0aad

#67500
0aaa

#68000
1aaa
bZZZZZZZZZZZZZZZZ aab
1aad
b10010 aae

#68500
0aaa

#69000
1aaa
b10110100 aab
0aac

#69500
0aaa

#70000
1aaa
bZZZZZZZZZZZZZZZZ aab
1aac
b10001 aae

#70500
0aaa

#71000
1aaa
b10101010 aab
0aad

#71500
0aaa

#72000
1aaa
bZZZZZZZZZZZZZZZZ aab
1aad
b10011 aae

#72500
0aaa

#73000
1aaa
b10111110 aab
0aac

#73500
0aaa

#74000
1aaa
bZZZZZZZZZZZZZZZZ aab
1aac
b10010 aae

#74500
0aaa

#75000
1aaa
b10110100 aab
0aad

#75500
0aaa

#76000
1aaa
bZZZZZZZZZZZZZZZZ aab
1aad
b10100 aae

#76500
0aaa

#77000
1aaa
b11001000 aab
0aac

#77500
0aaa

#78000
1aaa
bZZZZZZZZZZZZZZZZ aab
1aac
b10011 aae

#78500
0aaa

#79000
1aaa
b10111110 aab
0aad

#79500
0aaa

#80000
1aaa
bZZZZZZZZZZZZZZZZ aab
1aad
b10101 aae

#80500
0aaa

#81000
1aaa
b11010010 aab
0aac

#81500
0aaa

#82000
1aaa
bZZZZZZZZZZZZZZZZ aab
1aac
b10100 aae

#82500
0aaa

#83000
1aaa
b11001000 aab
0aad

#83500
0aaa

#84000
1aaa
bZZZZZZZZZZZZZZZZ aab
1aad
b10110 aae

#84500
0aaa

#85000
1aaa
b11011100 aab
0aac

#85500
0aaa

#86000
1aaa
bZZZZZZZZZZZZZZZZ aab
1aac
b10101 aae

#86500
0aaa

#87000
1aaa
b11010010 aab
0aad

#87500
0aaa

#88000
1aaa
bZZZZZZZZZZZZZZZZ aab
1aad
b10111 aae

#88500
0aaa

#89000
1aaa
b11100110 aab
0aac

#89500
0aaa

#90000
1aaa
bZZZZZZZZZZZZZZZZ aab
1aac
b10110 aae

#90500
0aaa

#91000
1aaa
b11011100 aab
0aad

#91500
0aaa

#92000
1aaa
bZZZZZZZZZZZZZZZZ aab
1aad
b11000 aae

#92500
0aaa

#93000
1aaa
b11110000 aab
0aac

#93500
0aaa

#94000
1aaa
bZZZZZZZZZZZZZZZZ aab
1aac
b10111 aae

#94500
0aaa

#95000
1aaa
b11100110 aab
0aad

#95500
0aaa

#96000
1aaa
bZZZZZZZZZZZZZZZZ aab
1aad
b11001 aae

#96500
0aaa

#97000
1aaa
b11111010 aab
0aac

#97500
0aaa

#98000
1aaa
bZZZZZZZZZZZZZZZZ aab
1aac
b11000 aae

#98500
0aaa

#99000
1aaa
b11110000 aab
0aad

