module_a14_tp1/systemc_examples/and3/wave/waveform.vcd
$date
     Sep 09, 2014       11:01:53
$end

$version
              SystemC 2.2.0 --- Oct 15 2013 10:44:08
$end

$timescale
     1 ps
$end

$scope module SystemC $end
$var wire    1  aaa  clock       $end
$var wire    1  aab  and3_s       $end
$var wire    1  aac  and3_e3       $end
$var wire    1  aad  and3_e2       $end
$var wire    1  aae  and3_e1       $end
$upscope $end
$enddefinitions  $end

$comment
All initial values are dumped below at time 0 sec = 0 timescale units.
$end

$dumpvars
1aaa
0aab
0aac
0aad
0aae
$end

#500
0aaa

#1000
1aaa
1aae

#1500
0aaa

#2000
1aaa
1aab
1aac
1aad

#2500
0aaa

#3000
1aaa
0aab
0aae

#3500
0aaa

#4000
1aaa
0aac
0aad

#4500
0aaa

#5000
1aaa
1aae

#5500
0aaa

#6000
1aaa
1aab
1aac
1aad

#6500
0aaa

#7000
1aaa
0aab
0aae

#7500
0aaa

#8000
1aaa
0aac
0aad

#8500
0aaa

#9000
1aaa
1aae

#9500
0aaa

#10000
1aaa
1aab
1aac
1aad

#10500
0aaa

#11000
1aaa
0aab
0aae

#11500
0aaa

#12000
1aaa
0aac
0aad

#12500
0aaa

#13000
1aaa
1aae

#13500
0aaa

#14000
1aaa
1aab
1aac
1aad

#14500
0aaa

#15000
1aaa
0aab
0aae

#15500
0aaa

#16000
1aaa
0aac
0aad

#16500
0aaa

#17000
1aaa
1aae

#17500
0aaa

#18000
1aaa
1aab
1aac
1aad

#18500
0aaa

#19000
1aaa
0aab
0aae

#19500
0aaa

#20000
1aaa
0aac
0aad

#20500
0aaa

#21000
1aaa
1aae

#21500
0aaa

#22000
1aaa
1aab
1aac
1aad

#22500
0aaa

#23000
1aaa
0aab
0aae

#23500
0aaa

#24000
1aaa
0aac
0aad

#24500
0aaa

#25000
1aaa
1aae

#25500
0aaa

#26000
1aaa
1aab
1aac
1aad

#26500
0aaa

#27000
1aaa
0aab
0aae

#27500
0aaa

#28000
1aaa
0aac
0aad

#28500
0aaa

#29000
1aaa
1aae

#29500
0aaa

#30000
1aaa
1aab
1aac
1aad

#30500
0aaa

#31000
1aaa
0aab
0aae

#31500
0aaa

#32000
1aaa
0aac
0aad

#32500
0aaa

#33000
1aaa
1aae

#33500
0aaa

#34000
1aaa
1aab
1aac
1aad

#34500
0aaa

#35000
1aaa
0aab
0aae

#35500
0aaa

#36000
1aaa
0aac
0aad

#36500
0aaa

#37000
1aaa
1aae

#37500
0aaa

#38000
1aaa
1aab
1aac
1aad

#38500
0aaa

#39000
1aaa
0aab
0aae

#39500
0aaa

#40000
1aaa
0aac
0aad

#40500
0aaa

#41000
1aaa
1aae

#41500
0aaa

#42000
1aaa
1aab
1aac
1aad

#42500
0aaa

#43000
1aaa
0aab
0aae

#43500
0aaa

#44000
1aaa
0aac
0aad

#44500
0aaa

#45000
1aaa
1aae

#45500
0aaa

#46000
1aaa
1aab
1aac
1aad

#46500
0aaa

#47000
1aaa
0aab
0aae

#47500
0aaa

#48000
1aaa
0aac
0aad

#48500
0aaa

#49000
1aaa
1aae

#49500
0aaa

#50000
1aaa
1aab
1aac
1aad

#50500
0aaa

#51000
1aaa
0aab
0aae

#51500
0aaa

#52000
1aaa
0aac
0aad

#52500
0aaa

#53000
1aaa
1aae

#53500
0aaa

#54000
1aaa
1aab
1aac
1aad

#54500
0aaa

#55000
1aaa
0aab
0aae

#55500
0aaa

#56000
1aaa
0aac
0aad

#56500
0aaa

#57000
1aaa
1aae

#57500
0aaa

#58000
1aaa
1aab
1aac
1aad

#58500
0aaa

#59000
1aaa
0aab
0aae

#59500
0aaa

#60000
1aaa
0aac
0aad

#60500
0aaa

#61000
1aaa
1aae

#61500
0aaa

#62000
1aaa
1aab
1aac
1aad

#62500
0aaa

#63000
1aaa
0aab
0aae

#63500
0aaa

#64000
1aaa
0aac
0aad

#64500
0aaa

#65000
1aaa
1aae

#65500
0aaa

#66000
1aaa
1aab
1aac
1aad

#66500
0aaa

#67000
1aaa
0aab
0aae

#67500
0aaa

#68000
1aaa
0aac
0aad

#68500
0aaa

#69000
1aaa
1aae

#69500
0aaa

#70000
1aaa
1aab
1aac
1aad

#70500
0aaa

#71000
1aaa
0aab
0aae

#71500
0aaa

#72000
1aaa
0aac
0aad

#72500
0aaa

#73000
1aaa
1aae

#73500
0aaa

#74000
1aaa
1aab
1aac
1aad

#74500
0aaa

#75000
1aaa
0aab
0aae

#75500
0aaa

#76000
1aaa
0aac
0aad

#76500
0aaa

#77000
1aaa
1aae

#77500
0aaa

#78000
1aaa
1aab
1aac
1aad

#78500
0aaa

#79000
1aaa
0aab
0aae

#79500
0aaa

#80000
1aaa
0aac
0aad

#80500
0aaa

#81000
1aaa
1aae

#81500
0aaa

#82000
1aaa
1aab
1aac
1aad

#82500
0aaa

#83000
1aaa
0aab
0aae

#83500
0aaa

#84000
1aaa
0aac
0aad

#84500
0aaa

#85000
1aaa
1aae

#85500
0aaa

#86000
1aaa
1aab
1aac
1aad

#86500
0aaa

#87000
1aaa
0aab
0aae

#87500
0aaa

#88000
1aaa
0aac
0aad

#88500
0aaa

#89000
1aaa
1aae

#89500
0aaa

#90000
1aaa
1aab
1aac
1aad

#90500
0aaa

#91000
1aaa
0aab
0aae

#91500
0aaa

#92000
1aaa
0aac
0aad

#92500
0aaa

#93000
1aaa
1aae

#93500
0aaa

#94000
1aaa
1aab
1aac
1aad

#94500
0aaa

#95000
1aaa
0aab
0aae

#95500
0aaa

#96000
1aaa
0aac
0aad

#96500
0aaa

#97000
1aaa
1aae

#97500
0aaa

#98000
1aaa
1aab
1aac
1aad

#98500
0aaa

#99000
1aaa
0aab
0aae

